{
    "variables": {
        "aws_access_key": "",
        "aws_secret_key": "",
        "source_ami": "",
        "ami_git_sha": "",
        "provision_git_sha": ""
    },
    "builders": [
        {
            "name": "ami-mysql",
            "type": "amazon-ebs",
            "access_key": "{{user `aws_access_key`}}",
            "secret_key": "{{user `aws_secret_key`}}",
            "region": "us-east-1",
            "source_ami": "{{user `source_ami`}}",
            "instance_type": "t1.micro",
            "ssh_username": "root",
            "ami_name": "mysql-{{isotime | clean_ami_name}}",
            "ami_description": "dce custom ami for mh node",
            "ami_block_device_mappings": [
                {
                    "device_name": "/dev/sda",
                    "volume_size": 10,
                    "volume_type": "gp2",
                    "delete_on_termination": true
                }
            ],
            "tags": {
                "Name": "ami-mysql",
                "os_version": "centos 6.5",
                "repo_ami": "{{user `ami_git_sha`}}",
                "repo_provision": "{{user `provision_git_sha`}}",
                "source_ami": "{{user `source_ami`}}",
                "created_on": "{{isotime | clean_ami_name}}"
            }
        }
    ],
    "provisioners": [
        {
            "type": "shell",
            "execute_command": "{{.Vars}} sudo -S -E bash '{{.Path}}'",
            "scripts": [
                "scripts/base.sh",
                "scripts/ntp.sh",
                "scripts/ansible.sh"
            ]
        },
        {
            "type": "ansible-local",
            "override": {
                "ami-mysql": {
                    "playbook_file": "../provision/playbook-ami-mysql.yml",
                    "role_paths": [
                        "../provision/roles/mysql"
                    ]
                }
            }
        },
        {
            "type": "shell",
            "execute_command": "{{.Vars}} sudo -S -E bash '{{.Path}}'",
            "scripts": [
                "scripts/motd.sh",
                "scripts/remove-authorized-keys.sh"
            ],
            "environment_vars": [
                "AMI_GIT_SHA={{user `ami_git_sha`}}",
                "PROVISION_GIT_SHA={{user `provision_git_sha`}}"
            ]
        }
    ]
}



